…
    ## Rows: 1868 Columns: 32
    ## ── Column specification ────────────────────────────────────────────────────────
    ## Delimiter: ","
    ## chr (22): Division, Line, Station Name, Route1, Route2, Route3, Route4, Rout...
    ## dbl  (8): Station Latitude, Station Longitude, Route8, Route9, Route10, Rout...
    ## lgl  (2): ADA, Free Crossover
    ## 
    ## ℹ Use `spec()` to retrieve the full column specification for this data.
    ## ℹ Specify the column types or set `show_col_types = FALSE` to quiet this message.

``` r
nyc_df
```

    ## # A tibble: 1,868 × 9
    ##    line     station_name station_latitude station_longitude routes_served entry
    ##    <chr>    <chr>                   <dbl>             <dbl> <chr>         <lgl>
    ##  1 4 Avenue 25th St                  40.7             -74.0 R             TRUE 
    ##  2 4 Avenue 25th St                  40.7             -74.0 R             TRUE 
    ##  3 4 Avenue 36th St                  40.7             -74.0 N, R          TRUE 
    ##  4 4 Avenue 36th St                  40.7             -74.0 N, R          TRUE 
    ##  5 4 Avenue 36th St                  40.7             -74.0 N, R          TRUE 
    ##  6 4 Avenue 45th St                  40.6             -74.0 R             TRUE 
    ##  7 4 Avenue 45th St                  40.6             -74.0 R             TRUE 
    ##  8 4 Avenue 45th St                  40.6             -74.0 R             TRUE 
    ##  9 4 Avenue 45th St                  40.6             -74.0 R             TRUE 
    ## 10 4 Avenue 53rd St                  40.6             -74.0 R             TRUE 
    ## # ℹ 1,858 more rows
    ## # ℹ 3 more variables: vending <chr>, entrance_type <chr>, ada <lgl>
…
``` r
nyc_distinct_df=
distinct(nyc_df, line, station_name, .keep_all = TRUE)
```

#### There are 465 distinct stations.

``` r
  filter(nyc_distinct_df, ada=="TRUE")
```

    ## # A tibble: 84 × 9
    ##    line      station_name station_latitude station_longitude routes_served entry
    ##    <chr>     <chr>                   <dbl>             <dbl> <chr>         <lgl>
    ##  1 4 Avenue  Atlantic Av…             40.7             -74.0 B, Q, D, N, … TRUE 
    ##  2 4 Avenue  DeKalb Av                40.7             -74.0 B, Q, R       TRUE 
    ##  3 4 Avenue  Pacific St               40.7             -74.0 B, Q, D, N, … TRUE 
    ##  4 42nd St … Grand Centr…             40.8             -74.0 GS, 4, 5, 6,… TRUE 
    ##  5 6 Avenue  34th St                  40.7             -74.0 B, D, F, M, … TRUE 
    ##  6 6 Avenue  47-50th Sts…             40.8             -74.0 B, D, F, M    TRUE 
    ##  7 6 Avenue  Church Av                40.6             -74.0 F             TRUE 
    ##  8 63rd Str… 21st St                  40.8             -73.9 F             TRUE 
    ##  9 63rd Str… Lexington Av             40.8             -74.0 F             TRUE 
    ## 10 63rd Str… Roosevelt I…             40.8             -74.0 F             TRUE 
    ## # ℹ 74 more rows
    ## # ℹ 3 more variables: vending <chr>, entrance_type <chr>, ada <lgl>

#### There are 84 distinct stations that have ADA compliance.

``` r
filter(nyc_df, vending=="NO", entry =="TRUE")
```

    ## # A tibble: 69 × 9
    ##    line     station_name station_latitude station_longitude routes_served entry
    ##    <chr>    <chr>                   <dbl>             <dbl> <chr>         <lgl>
    ##  1 4 Avenue 9th St                   40.7             -74.0 F, G, R       TRUE 
    ##  2 6 Avenue 7th Av                   40.7             -74.0 F             TRUE 
    ##  3 6 Avenue 7th Av                   40.7             -74.0 F             TRUE 
    ##  4 6 Avenue 7th Av                   40.7             -74.0 F             TRUE 
    ##  5 6 Avenue 7th Av                   40.7             -74.0 F             TRUE 
    ##  6 6 Avenue 7th Av                   40.7             -74.0 F             TRUE 
    ##  7 6 Avenue 7th Av                   40.7             -74.0 F             TRUE 
    ##  8 6 Avenue 7th Av                   40.7             -74.0 F             TRUE 
    ##  9 6 Avenue 7th Av                   40.7             -74.0 F             TRUE 
    ## 10 6 Avenue Bergen St                40.7             -74.0 F, G          TRUE 
    ## # ℹ 59 more rows
    ## # ℹ 3 more variables: vending <chr>, entrance_type <chr>, ada <lgl>
…
